module nine

go 1.13

require (
	cloud.google.com/go v0.62.0 // indirect
	github.com/dgrijalva/jwt-go v3.2.0+incompatible
	github.com/gorilla/mux v1.7.4
	github.com/joho/godotenv v1.3.0
	github.com/stretchr/testify v1.4.0
	golang.org/x/oauth2 v0.0.0-20200107190931-bf48bf16ab8d
)
